[
  {
    "type": 1,
    "name": "核桃1",
    "shopid": "",
    "category": "",
    "stock": 120,
    "price": 13,
    "cost": 10,
    "intro": "这是一条商品的描述",
    "method": 0,
    "unit": 1,
    "checked": "false"
  },
  {
    "type": 2,
    "name": "核桃2",
    "shopid": "",
    "category": "",
    "stock": 140,
    "price": 40,
    "cost": 10,
    "intro": "这是一条商品的描述",
    "method": 0,
    "unit": 1,
    "checked": "false"
  },
  {
    "type": 3,
    "name": "核桃3",
    "shopid": "",
    "category": "",
    "stock": 120,
    "price": 24,
    "cost": 10,
    "intro": "这是一条商品的描述",
    "method": 0,
    "unit": 1,
    "checked": "false"
  },
  {
    "type": 1,
    "name": "核桃4",
    "shopid": "",
    "category": "",
    "stock": 101,
    "price": 22,
    "cost": 10,
    "intro": "这是一条商品的描述",
    "method": 0,
    "unit": 1,
    "checked": "false"
  }
]